General Interface for Neural Prophet Time Series Models — neural_prophet • neuralprophet
…
#> Registered S3 method overwritten by 'tune':
#>   method                   from   
#>   required_pkgs.model_spec parsnip

# Data
md10 <- m4_daily %>% filter(id == "D10")
md10

#> # A tibble: 674 x 3
#>    id    date       value
#>    <fct> <date>     <dbl>
#>  1 D10   2014-07-03 2076.
#>  2 D10   2014-07-04 2073.
#>  3 D10   2014-07-05 2049.
#>  4 D10   2014-07-06 2049.
#>  5 D10   2014-07-07 2006.
#>  6 D10   2014-07-08 2018.
#>  7 D10   2014-07-09 2019.
#>  8 D10   2014-07-10 2007.
#>  9 D10   2014-07-11 2010 
#> 10 D10   2014-07-12 2002.
#> # … with 664 more rows
…
